{"photos":{"page":1, "pages":10, "perpage":50, "total":500, "photo":[{"id":"1111", "owner":"1111@N00", "secret":"dbf274f29b", "server":"7157", "farm":8, "title":"Untitled 1", "ispublic":1, "isfriend":0, "isfamily":0, "url_l":"http:\/\/farm8.staticflickr.com\/7157\/1111.jpg", "height_l":"1000", "width_l":"800", "ownername":"temp 1"}, {"id":"2222", "owner":"2222@N05", "secret":"c0346bea36", "server":"7027", "farm":8, "title":"Untitled 2", "ispublic":1, "isfriend":0, "isfamily":0, "url_l":"http:\/\/farm8.staticflickr.com\/7027\/2222.jpg", "height_l":"698", "width_l":"1024", "ownername":"temp 2"}, {"id":"3333", "owner":"3333@N04", "secret":"fa915cc656", "server":"7173", "farm":8, "title":"Untitled 3", "ispublic":1, "isfriend":0, "isfamily":0, "url_l":"http:\/\/farm8.staticflickr.com\/7173\/3333.jpg", "height_l":"700", "width_l":"700", "ownername":"temp 3"}, {"id":"4444", "owner":"4444@N03", "secret":"48cf828179", "server":"7172", "farm":8, "title":"Untitled 4", "ispublic":1, "isfriend":0, "isfamily":0, "height_l":"681", "width_l":"1024", "ownername":"temp 4"}, {"id":"5555", "owner":"5555@N05", "secret":"f48fa3a1a1", "server":"7156", "farm":8, "title":"Untitled 5", "ispublic":0, "isfriend":0, "isfamily":0, "url_l":"http:\/\/farm8.staticflickr.com\/7156\/5555.jpg", "height_l":"680", "width_l":"1024", "ownername":"temp 5"}]}, "stat":"ok"}